2019-08-01 11:35:48.1147|TRACE|CeridianManualDataImporter.Calabrio.API.Helpers.headers|Thread: 1|Attempting to get Request ID from HTTP headers|
2019-08-01 11:35:48.1955|TRACE|CeridianManualDataImporter.Calabrio.API.Helpers.headers|Thread: 1|Calabrio Request ID found: 65cba181-701f-4c3b-8920-119970f37fba|
2019-08-01 11:35:48.2147|INFO|CeridianManualDataImporter.Calabrio.API.Authentication.Authorization|Thread: 1|Calabrio Request ID: 65cba181-701f-4c3b-8920-119970f37fba -- Calabrio authentication success|
2019-08-01 11:35:48.2147|TRACE|CeridianManualDataImporter.Calabrio.API.Authentication.Authorization|Thread: 1|jSessionID=JSESSIONID=576C7867288347FC8C4A8A54BDC5ECB7|
2019-08-01 11:35:48.2584|TRACE|CeridianManualDataImporter.Calabrio.API.Authentication.Authorization|Thread: 1|hazelCastID=JSESSIONID=576C7867288347FC8C4A8A54BDC5ECB7|
2019-08-01 11:35:48.2738|TRACE|CeridianManualDataImporter.Calabrio.API.Authentication.Authorization|Thread: 1|API authorization successful: JSESSIONID=576C7867288347FC8C4A8A54BDC5ECB7  hazelcast.sessionId=HZF9860E2B9A014FB9A501C48A7191953A|
2019-08-01 11:35:48.2859|TRACE|CeridianManualDataImporter.Calabrio.API.Authentication.Authorization|Thread: 1|Authorization cookie has data|
2019-08-01 11:35:48.7075|TRACE|CeridianManualDataImporter.Calabrio.API.Helpers.headers|Thread: 1|Attempting to get application server name from HTTP headers|
2019-08-01 11:35:48.7184|TRACE|CeridianManualDataImporter.Calabrio.API.Helpers.headers|Thread: 1|Calabrio application server detected: peterlab01|
2019-08-01 11:35:48.7315|TRACE|CeridianManualDataImporter.Calabrio.API.Helpers.headers|Thread: 1|Attempting to get Request ID from HTTP headers|
2019-08-01 11:35:48.7315|TRACE|CeridianManualDataImporter.Calabrio.API.Helpers.headers|Thread: 1|Calabrio Request ID found: df8279f6-194d-4198-8f95-5b71aaf4e41d|
2019-08-01 11:35:48.7535|INFO|CeridianManualDataImporter.Calabrio.API.Contact.search|Thread: 1|Calabrio Application Server: peterlab01 Calabrio Request ID: df8279f6-194d-4198-8f95-5b71aaf4e41d Request successfully submitted to Calabrio.|
2019-08-01 11:35:49.0032|TRACE|CeridianManualDataImporter.Calabrio.API.Contact.search|Thread: 1|CeridianManualDataImporter.Calabrio.API.Contact.contact|
2019-08-01 11:35:49.0345|TRACE|CeridianManualDataImporter.Calabrio.API.Contact.delete|Thread: 1|Original Contact|
2019-08-01 11:35:49.0544|TRACE|CeridianManualDataImporter.Calabrio.API.Contact.delete|Thread: 1|{"id":11175,"startTime":1554397407270,"tz":"America\/New_York","tzOffset":0,"callDuration":11888,"ani":"2567","dnis":"Gary-Smith","line":"555556000000","audioUploadState":2,"screenUploadState":0,"recordingType":"UNKNOWN_RECORDING","icmCallId":"1234","assocCallId":"123","contactType":"CALL","isCalibration":false,"fromAddress":null,"toAddress":null,"subject":null,"dailyWorkflowRule":"Default","endOfCallWorkflowRule":"Default","surveyScore":null,"surveyName":null,"isRootRecording":false,"evalStateId":1,"videoFileUploadStateId":null,"audioFileUploadStateId":2,"isInbound":false,"agent":{"$ref":"\/api\/rest\/recording\/person\/7","displayId":"Josh Majzner","agentAcdId":"joshM","lastName":"Majzner","firstName":"Josh","username":"josh.majzner@calabrio.com"},"team":{"$ref":"\/api\/rest\/recording\/team\/3","name":"Default Team"},"group":{"$ref":"\/api\/rest\/recording\/group\/2","name":"Default Group"},"recordingUrl":"\/api\/rest\/recording\/contact\/11175\/recording","training":false,"hr":false,"reason":{"reasonId":10,"key":"rec_reason_archive"},"evalScorePrediction":null,"netPromoterScore":null,"netPromoterScorePrediction":null,"sentiment":null,"evalForm":{"evalFormId":1,"$ref":"\/api\/rest\/recording\/evalform\/1","name":"Test","bandRanges":[{"band":1,"begin":0,"end":40},{"band":2,"begin":40,"end":60},{"band":3,"begin":60,"end":100}]},"evaluator":{"$ref":"\/api\/rest\/recording\/person\/235","firstName":"test","lastName":"User","displayId":"test User","username":"testUser@calabrio.com"},"approver":{"$ref":"\/api\/rest\/recording\/person\/7","firstName":"Josh","lastName":"Majzner","displayId":"Josh Majzner","username":"josh.majzner@calabrio.com"},"evaluation":{"$ref":"\/api\/rest\/recording\/contact\/11175\/eval\/3","id":3,"stateId":1,"totalScore":100.0,"evaluated":1554398159900,"evaluatedTz":"America\/New_York","responseDate":null,"responseState":null},"goal":null,"events":{"$ref":"\/api\/rest\/recording\/contact\/11175\/event"},"eventCalculations":{"$ref":"\/api\/rest\/recording\/contact\/11175\/eventCalculation"}}
|
2019-08-01 11:35:49.0784|TRACE|CeridianManualDataImporter.Calabrio.API.Contact.delete|Thread: 1|Attempting to modify contact upload states to recycled.|
2019-08-01 11:35:49.0994|TRACE|CeridianManualDataImporter.Calabrio.API.Contact.delete|Thread: 1|Contact states modifed|
2019-08-01 11:35:49.1777|INFO|CeridianManualDataImporter.Calabrio.API.Contact.delete|Thread: 1|Attempting to delete calabrio Contact: 11175|
2019-08-01 11:35:49.2065|TRACE|CeridianManualDataImporter.Calabrio.API.Contact.delete|Thread: 1|{
  "id": 11175,
  "startTime": 1554397407270,
  "tz": "America/New_York",
  "tzOffset": 0,
  "callDuration": 11888,
  "ani": "2567",
  "dnis": "Gary-Smith",
  "line": "555556000000",
  "audioUploadState": 6,
  "screenUploadState": 6,
  "recordingType": "UNKNOWN_RECORDING",
  "icmCallId": "1234",
  "assocCallId": "123",
  "contactType": "CALL",
  "isCalibration": false,
  "fromAddress": null,
  "toAddress": null,
  "subject": null,
  "dailyWorkflowRule": "Default",
  "endOfCallWorkflowRule": "Default",
  "surveyScore": null,
  "surveyName": null,
  "isRootRecording": false,
  "evalStateId": 1,
  "videoFileUploadStateId": null,
  "audioFileUploadStateId": 2,
  "isInbound": false,
  "agent": {
    "$ref": "/api/rest/recording/person/7",
    "displayId": "Josh Majzner",
    "agentAcdId": "joshM",
    "lastName": "Majzner",
    "firstName": "Josh",
    "username": "josh.majzner@calabrio.com"
  },
  "team": {
    "$ref": "/api/rest/recording/team/3",
    "name": "Default Team"
  },
  "group": {
    "$ref": "/api/rest/recording/group/2",
    "name": "Default Group"
  },
  "recordingUrl": "/api/rest/recording/contact/11175/recording",
  "training": false,
  "hr": false,
  "reason": {
    "reasonId": -2,
    "key": "rec_reason_archive"
  },
  "evalScorePrediction": null,
  "netPromoterScore": null,
  "netPromoterScorePrediction": null,
  "sentiment": null,
  "evalForm": {
    "evalFormId": 1,
    "$ref": "/api/rest/recording/evalform/1",
    "name": "Test",
    "bandRanges": [
      {
        "band": 1,
        "begin": 0,
        "end": 40
      },
      {
        "band": 2,
        "begin": 40,
        "end": 60
      },
      {
        "band": 3,
        "begin": 60,
        "end": 100
      }
    ]
  },
  "evaluator": {
    "$ref": "/api/rest/recording/person/235",
    "displayId": "test User",
    "agentAcdId": null,
    "lastName": "User",
    "firstName": "test",
    "username": "testUser@calabrio.com"
  },
  "approver": {
    "$ref": "/api/rest/recording/person/7",
    "displayId": "Josh Majzner",
    "agentAcdId": null,
    "lastName": "Majzner",
    "firstName": "Josh",
    "username": "josh.majzner@calabrio.com"
  },
  "evaluation": {
    "$ref": "/api/rest/recording/contact/11175/eval/3",
    "id": 3,
    "stateId": 1,
    "totalScore": 100.0,
    "evaluated": 1554398159900,
    "evaluatedTz": "America/New_York",
    "responseDate": null,
    "responseState": null
  },
  "goal": null,
  "events": {
    "$ref": "/api/rest/recording/contact/11175/event"
  },
  "eventCalculations": {
    "talkover": null,
    "silence": null,
    "pause": null,
    "hold": null
  },
  "metadata": null
}|
2019-08-01 11:35:49.2315|TRACE|CeridianManualDataImporter.Calabrio.API.Contact.delete|Thread: 1|Attempting to post:{
  "id": 11175,
  "startTime": 1554397407270,
  "tz": "America/New_York",
  "tzOffset": 0,
  "callDuration": 11888,
  "ani": "2567",
  "dnis": "Gary-Smith",
  "line": "555556000000",
  "audioUploadState": 6,
  "screenUploadState": 6,
  "recordingType": "UNKNOWN_RECORDING",
  "icmCallId": "1234",
  "assocCallId": "123",
  "contactType": "CALL",
  "isCalibration": false,
  "fromAddress": null,
  "toAddress": null,
  "subject": null,
  "dailyWorkflowRule": "Default",
  "endOfCallWorkflowRule": "Default",
  "surveyScore": null,
  "surveyName": null,
  "isRootRecording": false,
  "evalStateId": 1,
  "videoFileUploadStateId": null,
  "audioFileUploadStateId": 2,
  "isInbound": false,
  "agent": {
    "$ref": "/api/rest/recording/person/7",
    "displayId": "Josh Majzner",
    "agentAcdId": "joshM",
    "lastName": "Majzner",
    "firstName": "Josh",
    "username": "josh.majzner@calabrio.com"
  },
  "team": {
    "$ref": "/api/rest/recording/team/3",
    "name": "Default Team"
  },
  "group": {
    "$ref": "/api/rest/recording/group/2",
    "name": "Default Group"
  },
  "recordingUrl": "/api/rest/recording/contact/11175/recording",
  "training": false,
  "hr": false,
  "reason": {
    "reasonId": -2,
    "key": "rec_reason_archive"
  },
  "evalScorePrediction": null,
  "netPromoterScore": null,
  "netPromoterScorePrediction": null,
  "sentiment": null,
  "evalForm": {
    "evalFormId": 1,
    "$ref": "/api/rest/recording/evalform/1",
    "name": "Test",
    "bandRanges": [
      {
        "band": 1,
        "begin": 0,
        "end": 40
      },
      {
        "band": 2,
        "begin": 40,
        "end": 60
      },
      {
        "band": 3,
        "begin": 60,
        "end": 100
      }
    ]
  },
  "evaluator": {
    "$ref": "/api/rest/recording/person/235",
    "displayId": "test User",
    "agentAcdId": null,
    "lastName": "User",
    "firstName": "test",
    "username": "testUser@calabrio.com"
  },
  "approver": {
    "$ref": "/api/rest/recording/person/7",
    "displayId": "Josh Majzner",
    "agentAcdId": null,
    "lastName": "Majzner",
    "firstName": "Josh",
    "username": "josh.majzner@calabrio.com"
  },
  "evaluation": {
    "$ref": "/api/rest/recording/contact/11175/eval/3",
    "id": 3,
    "stateId": 1,
    "totalScore": 100.0,
    "evaluated": 1554398159900,
    "evaluatedTz": "America/New_York",
    "responseDate": null,
    "responseState": null
  },
  "goal": null,
  "events": {
    "$ref": "/api/rest/recording/contact/11175/event"
  },
  "eventCalculations": {
    "talkover": null,
    "silence": null,
    "pause": null,
    "hold": null
  },
  "metadata": null
}|
2019-08-01 11:35:49.3365|TRACE|CeridianManualDataImporter.Calabrio.API.Helpers.headers|Thread: 1|Attempting to get application server name from HTTP headers|
2019-08-01 11:35:49.3456|TRACE|CeridianManualDataImporter.Calabrio.API.Helpers.headers|Thread: 1|Calabrio application server detected: peterlab01|
2019-08-01 11:35:49.3576|TRACE|CeridianManualDataImporter.Calabrio.API.Helpers.headers|Thread: 1|Attempting to get Request ID from HTTP headers|
2019-08-01 11:35:49.3576|TRACE|CeridianManualDataImporter.Calabrio.API.Helpers.headers|Thread: 1|Calabrio Request ID found: a6a372b4-805f-4a51-bde9-b58944c45604|
2019-08-01 11:35:49.3774|INFO|CeridianManualDataImporter.Calabrio.API.Contact.delete|Thread: 1|Calabrio Application Server: peterlab01 Calabrio Request ID: a6a372b4-805f-4a51-bde9-b58944c45604 Request succesfully submitted to Calabrio.|
2019-08-01 11:35:49.3905|INFO|CeridianManualDataImporter.testMethods|Thread: 1|Contact delete success|
